<?xml version="1.0" encoding="UTF-8"?>
<!DOCTYPE svg PUBLIC "-//W3C//DTD SVG 1.1//EN" "http://www.w3.org/Graphics/SVG/1.1/DTD/svg11.dtd">
<!-- Creator: CorelDRAW 2020 (64-Bit Evaluation Version) -->
<svg xmlns="http://www.w3.org/2000/svg" xml:space="preserve" width="0.371886in" height="0.402016in" version="1.1" style="shape-rendering:geometricPrecision; text-rendering:geometricPrecision; image-rendering:optimizeQuality; fill-rule:evenodd; clip-rule:evenodd"
viewBox="0 0 8.34 9.02"
 xmlns:xlink="http://www.w3.org/1999/xlink"
 xmlns:xodm="http://www.corel.com/coreldraw/odm/2003">
 <defs>
  <style type="text/css">
   <![CDATA[
    .fil0 {fill:#999966}
   ]]>
  </style>
 </defs>
 <g id="Layer_x0020_1">
  <metadata id="CorelCorpID_0Corel-Layer"/>
  <g id="_2203822192912">
   <path class="fil0" d="M0.41 3.8c-0.59,0.6 -0.26,0.69 0.02,1.03 -0.34,0.44 -0.16,0.64 0.21,0.93 -0.75,1.08 -0.7,3.01 -0.53,3.18 0.13,0.13 3.44,0.06 3.46,0.05l1.3 -1.74c0.11,-0.18 0.23,-0.58 0.15,-0.79 -0.45,-0.16 -2.02,0.16 -2.28,-0.16 -0.23,-0.29 -0.04,-0.58 0.07,-0.87 0.12,-0.29 0.23,-0.59 0.35,-0.89 0.06,-0.16 0.31,-0.74 0.33,-0.87 0.05,-0.37 -0.14,-0.71 -0.5,-0.74 -0.73,-0.05 -0.8,0.88 -1.23,1.24 -0.04,-0.4 0.13,-1.02 -0.16,-1.32 -0.01,-0.01 -1.31,-0.24 -1.36,0.5 -0.01,0.16 0.09,0.29 0.17,0.44z"/>
   <path class="fil0" d="M0.78 2.07l0.87 -0 0.01 -1.19 5.78 -0.01 0.01 1.19 0.87 0.01c0,-0.97 0.27,-2.08 -0.83,-2.07l-5.84 -0c-1.15,-0.01 -0.87,1.18 -0.87,2.07z"/>
   <path class="fil0" d="M5.97 3.81c0,0.23 -0.03,0.14 -0.33,0.27 -0.14,0.06 -0.22,0.12 -0.33,0.22 -0.41,0.41 -0.27,0.48 -0.41,0.69l-1.31 0.01 -0.33 0.86c0.57,0.04 2.18,0.01 2.85,0.01 0.38,0 0.69,-0.25 0.69,-0.64l0 -3.77 -0.83 0 0 2.34z"/>
   <path class="fil0" d="M4.37 2.02c-0.26,0.08 -0.37,0.09 -0.53,0.34 -0.46,0.68 0.21,1.54 0.92,1.34 0.43,-0.12 0.78,-0.58 0.64,-1.05 -0.06,-0.2 -0.19,-0.4 -0.36,-0.51 -0.28,-0.19 -0.46,-0.17 -0.67,-0.11z"/>
   <path class="fil0" d="M2.3 2.52c0.44,-0.23 0.68,-0.12 0.84,-0.16 0.06,-0.19 0.06,-0.67 0,-0.86 -0.23,-0.08 -0.59,-0.04 -0.83,-0.02l-0.01 1.04z"/>
  </g>
 </g>
</svg>
