<?xml version="1.0" encoding="UTF-8"?>
<!DOCTYPE svg PUBLIC "-//W3C//DTD SVG 1.1//EN" "http://www.w3.org/Graphics/SVG/1.1/DTD/svg11.dtd">
<!-- Creator: CorelDRAW 2020 (64-Bit Evaluation Version) -->
<svg xmlns="http://www.w3.org/2000/svg" xml:space="preserve" width="0.232016in" height="0.327315in" version="1.1" style="shape-rendering:geometricPrecision; text-rendering:geometricPrecision; image-rendering:optimizeQuality; fill-rule:evenodd; clip-rule:evenodd"
viewBox="0 0 1.93 2.72"
 xmlns:xlink="http://www.w3.org/1999/xlink"
 xmlns:xodm="http://www.corel.com/coreldraw/odm/2003">
 <defs>
  <style type="text/css">
   <![CDATA[
    .fil0 {fill:#F7B666}
   ]]>
  </style>
 </defs>
 <g id="Layer_x0020_1">
  <metadata id="CorelCorpID_0Corel-Layer"/>
  <path class="fil0" d="M0.04 0.94l1.02 0 -0.01 0.02c-0.01,0.19 -0.16,0.33 -0.34,0.38 -0.1,0.02 -0.24,0.02 -0.34,0.02 -0.41,0 -0.37,-0.04 -0.37,0.18 0,0.06 -0,0.14 0,0.19 0,0.04 0.14,0.16 0.18,0.19l0.79 0.73c0.09,0.09 0.13,0.07 0.31,0.07 0.08,0 0.32,0.02 0.34,-0.03 0.01,-0.08 -0.06,-0.09 -0.11,-0.14 -0.12,-0.14 -0.52,-0.46 -0.63,-0.58l-0.25 -0.23c0.23,-0.03 0.4,-0.02 0.62,-0.22 0.25,-0.23 0.23,-0.46 0.27,-0.57 0.07,-0 0.31,0.01 0.36,-0 0.05,-0.01 0.04,-0.11 0.04,-0.15 0,-0.05 0.01,-0.13 -0.01,-0.17 -0.05,-0.04 -0.33,-0.01 -0.42,-0.02 -0.02,-0.03 -0.03,-0.09 -0.05,-0.13 -0.02,-0.04 -0.05,-0.07 -0.06,-0.11 0.13,-0.02 0.5,0.03 0.53,-0.03 0.01,-0.04 0.01,-0.26 -0,-0.3 -0.04,-0.04 -0.17,-0.02 -0.23,-0.02 -0.49,0 -0.98,0 -1.47,0 -0.06,0 -0.18,-0.02 -0.21,0.03 -0.01,0.04 -0.01,0.28 0,0.32 0.05,0.08 0.59,-0.05 0.84,0.09 0.05,0.03 0.13,0.11 0.15,0.15 -0.12,0.01 -0.68,0 -0.87,0 -0.15,-0 -0.13,-0.01 -0.13,0.21 0,0.05 -0.02,0.11 0.04,0.13z"/>
 </g>
</svg>
