<?xml version="1.0" encoding="UTF-8"?>
<!DOCTYPE svg PUBLIC "-//W3C//DTD SVG 1.1//EN" "http://www.w3.org/Graphics/SVG/1.1/DTD/svg11.dtd">
<!-- Creator: CorelDRAW 2020 (64-Bit Evaluation Version) -->
<svg xmlns="http://www.w3.org/2000/svg" xml:space="preserve" width="0.336in" height="0.336008in" version="1.1" style="shape-rendering:geometricPrecision; text-rendering:geometricPrecision; image-rendering:optimizeQuality; fill-rule:evenodd; clip-rule:evenodd"
viewBox="0 0 48.23 48.23"
 xmlns:xlink="http://www.w3.org/1999/xlink"
 xmlns:xodm="http://www.corel.com/coreldraw/odm/2003">
 <defs>
  <style type="text/css">
   <![CDATA[
    .fil0 {fill:#00CCFF;fill-rule:nonzero}
   ]]>
  </style>
 </defs>
 <g id="Layer_x0020_1">
  <metadata id="CorelCorpID_0Corel-Layer"/>
  <g id="_2679989302640">
   <path id="Path_338" class="fil0" d="M42.28 -0l-18.16 0c-3.29,0 -5.95,2.67 -5.95,5.95l0 27.24c0,0.78 0.63,1.41 1.41,1.41 0.31,0 0.6,-0.1 0.85,-0.28l5.68 -4.26 16.18 0c3.29,0 5.95,-2.67 5.95,-5.95l0 -18.16c0,-3.29 -2.67,-5.95 -5.95,-5.95zm-10.49 22.5l-6.16 0c-0.78,0 -1.41,-0.63 -1.41,-1.41 0,-0.78 0.63,-1.41 1.41,-1.41l6.16 0c0.78,0 1.41,0.63 1.41,1.41 0,0.78 -0.63,1.41 -1.41,1.41zm8.98 -8.88l-15.14 0c-0.78,0 -1.41,-0.63 -1.41,-1.41 0,-0.78 0.63,-1.41 1.41,-1.41l15.14 0c0.78,0 1.41,0.63 1.41,1.41 0,0.78 -0.63,1.41 -1.41,1.41l0 0zm0 -8.88l-15.14 0c-0.78,0 -1.41,-0.63 -1.41,-1.41 0,-0.78 0.63,-1.41 1.41,-1.41l15.14 0c0.78,0 1.41,0.63 1.41,1.41 0,0.78 -0.63,1.41 -1.41,1.41l0 0zm0 -2.83z" data-name="Path 338"/>
   <path id="Path_339" class="fil0" d="M15.66 29.38c0,3.69 -2.99,6.68 -6.68,6.68 -3.69,0 -6.68,-2.99 -6.68,-6.68 0,-3.69 2.99,-6.68 6.68,-6.68 3.69,0 6.68,2.99 6.68,6.68 0,0 0,0 0,0l0 0zm-6.68 -6.68z" data-name="Path 339"/>
   <path id="Path_340" class="fil0" d="M8.98 36.06c0,-0 0,-0 0,-0 -4.96,0 -8.98,4.02 -8.98,8.98 0,0 0,0 0,0l0 1.78c0,0.78 0.63,1.41 1.41,1.41l15.14 0c0.78,0 1.41,-0.63 1.41,-1.41l0 -1.78c0,-0 0,-0 0,-0 0,-4.96 -4.02,-8.98 -8.98,-8.98 0,0 0,0 0,0l-0 0zm8.98 8.98z" data-name="Path 340"/>
  </g>
 </g>
</svg>
