<?xml version="1.0" encoding="UTF-8"?>
<!DOCTYPE svg PUBLIC "-//W3C//DTD SVG 1.1//EN" "http://www.w3.org/Graphics/SVG/1.1/DTD/svg11.dtd">
<!-- Creator: CorelDRAW 2020 (64-Bit Evaluation Version) -->
<svg xmlns="http://www.w3.org/2000/svg" xml:space="preserve" width="0.739in" height="0.739028in" version="1.1" style="shape-rendering:geometricPrecision; text-rendering:geometricPrecision; image-rendering:optimizeQuality; fill-rule:evenodd; clip-rule:evenodd"
viewBox="0 0 90.82 90.82"
 xmlns:xlink="http://www.w3.org/1999/xlink"
 xmlns:xodm="http://www.corel.com/coreldraw/odm/2003">
 <defs>
  <style type="text/css">
   <![CDATA[
    .fil0 {fill:#00CCFF;fill-rule:nonzero}
   ]]>
  </style>
 </defs>
 <g id="Layer_x0020_1">
  <metadata id="CorelCorpID_0Corel-Layer"/>
  <g id="_2678031386400">
   <path id="Path_338" class="fil0" d="M79.61 0l-34.2 0c-6.19,0 -11.21,5.02 -11.21,11.21l-0 51.3c0,1.47 1.19,2.66 2.66,2.66 0.57,0 1.13,-0.19 1.59,-0.53l10.69 -8.02 30.46 0c6.19,-0 11.21,-5.02 11.21,-11.21l0 -34.2c0,-6.19 -5.02,-11.21 -11.21,-11.21zm-19.76 42.37l-11.59 0c-1.47,0 -2.66,-1.19 -2.66,-2.66 0,-1.47 1.19,-2.66 2.66,-2.66l11.59 0c1.47,0 2.66,1.19 2.66,2.66 0,1.47 -1.19,2.66 -2.66,2.66zm16.91 -16.72l-28.5 0c-1.47,0 -2.66,-1.19 -2.66,-2.66 0,-1.47 1.19,-2.66 2.66,-2.66l28.5 0c1.47,0 2.66,1.19 2.66,2.66 0,1.47 -1.19,2.66 -2.66,2.66l0 -0zm0 -16.72l-28.5 0c-1.47,0 -2.66,-1.19 -2.66,-2.66 0,-1.47 1.19,-2.66 2.66,-2.66l28.5 0c1.47,0 2.66,1.19 2.66,2.66 0,1.47 -1.19,2.66 -2.66,2.66l0 0zm0 -5.32z" data-name="Path 338"/>
   <path id="Path_339" class="fil0" d="M29.49 55.33c0,6.94 -5.63,12.58 -12.58,12.58 -6.94,0 -12.58,-5.63 -12.58,-12.58 0,-6.95 5.63,-12.58 12.58,-12.58 6.95,0 12.58,5.63 12.58,12.58 0,0 0,0 0,0l0 0zm-12.58 -12.58z" data-name="Path 339"/>
   <path id="Path_340" class="fil0" d="M16.91 67.9c0,-0 0,-0 0,-0 -9.34,0 -16.91,7.57 -16.91,16.91 0,0 0,0 0,0.01l0 3.35c-0,1.47 1.19,2.66 2.66,2.66l28.5 0c1.47,-0 2.66,-1.19 2.66,-2.66l0 -3.35c0,-0 0,-0.01 0,-0.01 0,-9.34 -7.57,-16.91 -16.91,-16.91 0,0 0,0 0,0l-0 0zm16.91 16.92z" data-name="Path 340"/>
  </g>
 </g>
</svg>
