<?xml version="1.0" encoding="UTF-8"?>
<!DOCTYPE svg PUBLIC "-//W3C//DTD SVG 1.1//EN" "http://www.w3.org/Graphics/SVG/1.1/DTD/svg11.dtd">
<!-- Creator: CorelDRAW 2020 (64-Bit Evaluation Version) -->
<svg xmlns="http://www.w3.org/2000/svg" xml:space="preserve" width="0.739in" height="0.798866in" version="1.1" style="shape-rendering:geometricPrecision; text-rendering:geometricPrecision; image-rendering:optimizeQuality; fill-rule:evenodd; clip-rule:evenodd"
viewBox="0 0 18.82 20.34"
 xmlns:xlink="http://www.w3.org/1999/xlink"
 xmlns:xodm="http://www.corel.com/coreldraw/odm/2003">
 <defs>
  <style type="text/css">
   <![CDATA[
    .fil0 {fill:#999966}
   ]]>
  </style>
 </defs>
 <g id="Layer_x0020_1">
  <metadata id="CorelCorpID_0Corel-Layer"/>
  <g id="_2680001457632">
   <path class="fil0" d="M0.92 8.56c-1.33,1.34 -0.58,1.56 0.04,2.31 -0.76,0.99 -0.36,1.44 0.48,2.11 -1.69,2.44 -1.58,6.79 -1.19,7.18 0.29,0.29 7.76,0.14 7.81,0.11l2.92 -3.91c0.24,-0.41 0.52,-1.32 0.34,-1.79 -1.01,-0.37 -4.56,0.35 -5.13,-0.36 -0.52,-0.65 -0.1,-1.31 0.16,-1.96 0.27,-0.66 0.52,-1.34 0.78,-2.01 0.14,-0.37 0.7,-1.68 0.74,-1.96 0.11,-0.84 -0.31,-1.6 -1.14,-1.66 -1.65,-0.12 -1.8,1.99 -2.77,2.8 -0.09,-0.91 0.29,-2.3 -0.36,-2.98 -0.02,-0.01 -2.96,-0.53 -3.06,1.13 -0.02,0.37 0.21,0.66 0.37,0.99z"/>
   <path class="fil0" d="M1.76 4.66l1.95 -0 0.02 -2.67 13.03 -0.02 0.02 2.68 1.97 0.02c0,-2.18 0.6,-4.68 -1.86,-4.66l-13.16 -0c-2.59,-0.01 -1.97,2.65 -1.97,4.66z"/>
   <path class="fil0" d="M13.47 8.6c0,0.53 -0.06,0.32 -0.74,0.61 -0.32,0.14 -0.49,0.26 -0.74,0.51 -0.93,0.91 -0.6,1.09 -0.93,1.55l-2.96 0.03 -0.75 1.94c1.28,0.1 4.92,0.03 6.43,0.03 0.86,0 1.55,-0.57 1.55,-1.45l0 -8.49 -1.86 0 0 5.28z"/>
   <path class="fil0" d="M9.84 4.56c-0.59,0.18 -0.83,0.21 -1.2,0.76 -1.04,1.52 0.48,3.46 2.08,3.01 0.97,-0.28 1.75,-1.3 1.45,-2.37 -0.13,-0.45 -0.42,-0.9 -0.81,-1.16 -0.64,-0.43 -1.04,-0.39 -1.52,-0.25z"/>
   <path class="fil0" d="M5.18 5.69c0.99,-0.51 1.54,-0.28 1.9,-0.37 0.14,-0.42 0.14,-1.52 0,-1.94 -0.53,-0.18 -1.32,-0.09 -1.88,-0.05l-0.02 2.36z"/>
  </g>
 </g>
</svg>
